[
 {
  "url": "https://career.habr.com/vacancies/1000118484"
 },
 {
  "url": "https://career.habr.com/vacancies/1000114363"
 },
 {
  "url": "https://career.habr.com/vacancies/1000118468"
 },
 {
  "url": "https://career.habr.com/vacancies/1000083982"
 },
 {
  "url": "https://career.habr.com/vacancies/1000119761"
 },
 {
  "url": "https://career.habr.com/vacancies/1000119759",
  "salary": 4000
 },
 {
  "url": "https://career.habr.com/vacancies/1000071224",
  "salary": 180000
 },
 {
  "url": "https://career.habr.com/vacancies/1000115871"
 },
 {
  "url": "https://career.habr.com/vacancies/1000119337"
 },
 {
  "url": "https://career.habr.com/vacancies/1000119286"
 },
 {
  "url": "https://career.habr.com/vacancies/1000118294"
 },
 {
  "url": "https://career.habr.com/vacancies/1000106419",
  "salary": 400000
 },
 {
  "url": "https://career.habr.com/vacancies/1000118230"
 },
 {
  "url": "https://career.habr.com/vacancies/1000116373"
 },
 {
  "url": "https://career.habr.com/vacancies/1000113940"
 },
 {
  "url": "https://career.habr.com/vacancies/1000119672"
 },
 {
  "url": "https://career.habr.com/vacancies/1000112740"
 },
 {
  "url": "https://career.habr.com/vacancies/1000082651",
  "salary": 420000
 },
 {
  "url": "https://career.habr.com/vacancies/1000082657",
  "salary": 330000
 },
 {
  "url": "https://career.habr.com/vacancies/1000060543",
  "salary": 180000
 },
 {
  "url": "https://career.habr.com/vacancies/1000063388"
 },
 {
  "url": "https://career.habr.com/vacancies/1000090866"
 },
 {
  "url": "https://career.habr.com/vacancies/1000112259"
 },
 {
  "url": "https://career.habr.com/vacancies/1000118821"
 },
 {
  "url": "https://career.habr.com/vacancies/1000111746"
 },
 {
  "url": "https://career.habr.com/vacancies/1000119263"
 },
 {
  "url": "https://career.habr.com/vacancies/1000114419",
  "salary": 375000
 },
 {
  "url": "https://career.habr.com/vacancies/1000119134"
 },
 {
  "url": "https://career.habr.com/vacancies/1000119598"
 },
 {
  "url": "https://career.habr.com/vacancies/1000112078"
 },
 {
  "url": "https://career.habr.com/vacancies/1000114604"
 },
 {
  "url": "https://career.habr.com/vacancies/1000114605"
 },
 {
  "url": "https://career.habr.com/vacancies/1000118783",
  "salary": 2700
 },
 {
  "url": "https://career.habr.com/vacancies/1000118782",
  "salary": 4000
 },
 {
  "url": "https://career.habr.com/vacancies/1000118775"
 },
 {
  "url": "https://career.habr.com/vacancies/1000113081"
 },
 {
  "url": "https://career.habr.com/vacancies/1000114350"
 },
 {
  "url": "https://career.habr.com/vacancies/1000113069"
 },
 {
  "url": "https://career.habr.com/vacancies/1000118755",
  "salary": 200000
 },
 {
  "url": "https://career.habr.com/vacancies/1000113055"
 },
 {
  "url": "https://career.habr.com/vacancies/1000119564",
  "salary": 4000
 },
 {
  "url": "https://career.habr.com/vacancies/1000119553"
 },
 {
  "url": "https://career.habr.com/vacancies/1000119183"
 },
 {
  "url": "https://career.habr.com/vacancies/1000109697"
 },
 {
  "url": "https://career.habr.com/vacancies/1000118719"
 },
 {
  "url": "https://career.habr.com/vacancies/1000119534",
  "salary": 300000
 },
 {
  "url": "https://career.habr.com/vacancies/1000119525"
 },
 {
  "url": "https://career.habr.com/vacancies/1000119527"
 },
 {
  "url": "https://career.habr.com/vacancies/1000119513"
 },
 {
  "url": "https://career.habr.com/vacancies/1000119512"
 },
 {
  "url": "https://career.habr.com/vacancies/1000115309",
  "salary": 200000
 },
 {
  "url": "https://career.habr.com/vacancies/1000114647"
 },
 {
  "url": "https://career.habr.com/vacancies/1000114635"
 },
 {
  "url": "https://career.habr.com/vacancies/1000114636"
 },
 {
  "url": "https://career.habr.com/vacancies/1000108080"
 },
 {
  "url": "https://career.habr.com/vacancies/1000118509"
 },
 {
  "url": "https://career.habr.com/vacancies/1000118513"
 },
 {
  "url": "https://career.habr.com/vacancies/1000118510"
 },
 {
  "url": "https://career.habr.com/vacancies/1000114942"
 },
 {
  "url": "https://career.habr.com/vacancies/1000105092"
 },
 {
  "url": "https://career.habr.com/vacancies/1000111557",
  "salary": 275000
 },
 {
  "url": "https://career.habr.com/vacancies/1000105328"
 },
 {
  "url": "https://career.habr.com/vacancies/1000105325"
 },
 {
  "url": "https://career.habr.com/vacancies/1000114591"
 },
 {
  "url": "https://career.habr.com/vacancies/1000115670",
  "salary": 175000
 },
 {
  "url": "https://career.habr.com/vacancies/1000104630"
 },
 {
  "url": "https://career.habr.com/vacancies/1000108877"
 },
 {
  "url": "https://career.habr.com/vacancies/1000117744"
 },
 {
  "url": "https://career.habr.com/vacancies/1000118687"
 },
 {
  "url": "https://career.habr.com/vacancies/1000119144"
 },
 {
  "url": "https://career.habr.com/vacancies/1000117724"
 },
 {
  "url": "https://career.habr.com/vacancies/1000114326"
 },
 {
  "url": "https://career.habr.com/vacancies/1000114519"
 },
 {
  "url": "https://career.habr.com/vacancies/1000118675"
 },
 {
  "url": "https://career.habr.com/vacancies/1000117709"
 },
 {
  "url": "https://career.habr.com/vacancies/1000118669"
 },
 {
  "url": "https://career.habr.com/vacancies/1000117687"
 },
 {
  "url": "https://career.habr.com/vacancies/1000119471",
  "salary": 400000
 },
 {
  "url": "https://career.habr.com/vacancies/1000105373"
 },
 {
  "url": "https://career.habr.com/vacancies/1000111910",
  "salary": 300000
 },
 {
  "url": "https://career.habr.com/vacancies/1000111901"
 },
 {
  "url": "https://career.habr.com/vacancies/1000117646"
 },
 {
  "url": "https://career.habr.com/vacancies/1000117650"
 },
 {
  "url": "https://career.habr.com/vacancies/1000117633"
 },
 {
  "url": "https://career.habr.com/vacancies/1000111896",
  "salary": 220000
 },
 {
  "url": "https://career.habr.com/vacancies/1000115164"
 },
 {
  "url": "https://career.habr.com/vacancies/1000111890",
  "salary": 200000
 },
 {
  "url": "https://career.habr.com/vacancies/1000111272"
 },
 {
  "url": "https://career.habr.com/vacancies/1000117586"
 },
 {
  "url": "https://career.habr.com/vacancies/1000117582"
 },
 {
  "url": "https://career.habr.com/vacancies/1000119440",
  "salary": 215000
 },
 {
  "url": "https://career.habr.com/vacancies/1000119438",
  "salary": 150000
 },
 {
  "url": "https://career.habr.com/vacancies/1000064614",
  "salary": 145000
 },
 {
  "url": "https://career.habr.com/vacancies/1000119080"
 },
 {
  "url": "https://career.habr.com/vacancies/1000119079"
 },
 {
  "url": "https://career.habr.com/vacancies/1000119076"
 },
 {
  "url": "https://career.habr.com/vacancies/1000119057"
 },
 {
  "url": "https://career.habr.com/vacancies/1000119416",
  "salary": 4000
 },
 {
  "url": "https://career.habr.com/vacancies/1000112473"
 },
 {
  "url": "https://career.habr.com/vacancies/1000110406"
 },
 {
  "url": "https://career.habr.com/vacancies/1000104426"
 },
 {
  "url": "https://career.habr.com/vacancies/1000112460"
 },
 {
  "url": "https://career.habr.com/vacancies/1000112453"
 },
 {
  "url": "https://career.habr.com/vacancies/1000119262",
  "salary": 200000
 },
 {
  "url": "https://career.habr.com/vacancies/412670009",
  "salary": 7500
 },
 {
  "url": "https://career.habr.com/vacancies/1000119388",
  "salary": 350000
 },
 {
  "url": "https://career.habr.com/vacancies/1000097324",
  "salary": 7000
 },
 {
  "url": "https://career.habr.com/vacancies/1000081311"
 },
 {
  "url": "https://career.habr.com/vacancies/1000117344"
 },
 {
  "url": "https://career.habr.com/vacancies/1000112128"
 },
 {
  "url": "https://career.habr.com/vacancies/1000044878",
  "salary": 270000
 },
 {
  "url": "https://career.habr.com/vacancies/1000115301"
 },
 {
  "url": "https://career.habr.com/vacancies/1000119314"
 },
 {
  "url": "https://career.habr.com/vacancies/1000110755"
 },
 {
  "url": "https://career.habr.com/vacancies/1000111754"
 },
 {
  "url": "https://career.habr.com/vacancies/1000114940"
 },
 {
  "url": "https://career.habr.com/vacancies/1000110743"
 },
 {
  "url": "https://career.habr.com/vacancies/1000110744"
 },
 {
  "url": "https://career.habr.com/vacancies/1000119193"
 },
 {
  "url": "https://career.habr.com/vacancies/1000071580"
 },
 {
  "url": "https://career.habr.com/vacancies/1000116425"
 },
 {
  "url": "https://career.habr.com/vacancies/1000114791",
  "salary": 155000
 },
 {
  "url": "https://career.habr.com/vacancies/1000106183",
  "salary": 250000
 },
 {
  "url": "https://career.habr.com/vacancies/1000058253",
  "salary": 260000
 },
 {
  "url": "https://career.habr.com/vacancies/1000112796"
 },
 {
  "url": "https://career.habr.com/vacancies/1000118921",
  "salary": 180000
 },
 {
  "url": "https://career.habr.com/vacancies/1000114576",
  "salary": 260000
 },
 {
  "url": "https://career.habr.com/vacancies/1000118691"
 },
 {
  "url": "https://career.habr.com/vacancies/1000103108",
  "salary": 250000
 },
 {
  "url": "https://career.habr.com/vacancies/1000118818"
 },
 {
  "url": "https://career.habr.com/vacancies/1000118817"
 },
 {
  "url": "https://career.habr.com/vacancies/1000107682"
 },
 {
  "url": "https://career.habr.com/vacancies/1000088293",
  "salary": 150000
 },
 {
  "url": "https://career.habr.com/vacancies/1000118689",
  "salary": 270000
 },
 {
  "url": "https://career.habr.com/vacancies/656052593"
 },
 {
  "url": "https://career.habr.com/vacancies/1000118661",
  "salary": 215000
 },
 {
  "url": "https://career.habr.com/vacancies/1000115198",
  "salary": 200000
 },
 {
  "url": "https://career.habr.com/vacancies/1000118566"
 },
 {
  "url": "https://career.habr.com/vacancies/1000118487",
  "salary": 5500
 },
 {
  "url": "https://career.habr.com/vacancies/1000102709"
 },
 {
  "url": "https://career.habr.com/vacancies/1000118390",
  "salary": 175000
 },
 {
  "url": "https://career.habr.com/vacancies/1000026294",
  "salary": 150000
 },
 {
  "url": "https://career.habr.com/vacancies/1000110099",
  "salary": 3500
 },
 {
  "url": "https://career.habr.com/vacancies/1000118344"
 },
 {
  "url": "https://career.habr.com/vacancies/1000069207"
 },
 {
  "url": "https://career.habr.com/vacancies/1000118284"
 },
 {
  "url": "https://career.habr.com/vacancies/1000118245"
 },
 {
  "url": "https://career.habr.com/vacancies/1000118236",
  "salary": 300000
 },
 {
  "url": "https://career.habr.com/vacancies/1000107052",
  "salary": 5000
 },
 {
  "url": "https://career.habr.com/vacancies/1000118144",
  "salary": 300000
 },
 {
  "url": "https://career.habr.com/vacancies/1000118123",
  "salary": 5500
 },
 {
  "url": "https://career.habr.com/vacancies/1000079038",
  "salary": 245000
 },
 {
  "url": "https://career.habr.com/vacancies/1000115644"
 },
 {
  "url": "https://career.habr.com/vacancies/1000117923"
 },
 {
  "url": "https://career.habr.com/vacancies/1000117891"
 },
 {
  "url": "https://career.habr.com/vacancies/1000108610"
 },
 {
  "url": "https://career.habr.com/vacancies/1000111432"
 },
 {
  "url": "https://career.habr.com/vacancies/1000117831",
  "salary": 300000
 },
 {
  "url": "https://career.habr.com/vacancies/1000117782",
  "salary": 300000
 },
 {
  "url": "https://career.habr.com/vacancies/1000117780",
  "salary": 350000
 },
 {
  "url": "https://career.habr.com/vacancies/1000117660"
 },
 {
  "url": "https://career.habr.com/vacancies/1000117537",
  "salary": 4250
 },
 {
  "url": "https://career.habr.com/vacancies/1000117536",
  "salary": 4250
 },
 {
  "url": "https://career.habr.com/vacancies/1000117531"
 },
 {
  "url": "https://career.habr.com/vacancies/1000117483",
  "salary": 350000
 },
 {
  "url": "https://career.habr.com/vacancies/1000117434"
 },
 {
  "url": "https://career.habr.com/vacancies/1000117404",
  "salary": 3500
 },
 {
  "url": "https://career.habr.com/vacancies/1000117397"
 },
 {
  "url": "https://career.habr.com/vacancies/1000117394"
 },
 {
  "url": "https://career.habr.com/vacancies/1000117399"
 },
 {
  "url": "https://career.habr.com/vacancies/1000063188"
 },
 {
  "url": "https://career.habr.com/vacancies/1000117358"
 },
 {
  "url": "https://career.habr.com/vacancies/1000117354",
  "salary": 250000
 },
 {
  "url": "https://career.habr.com/vacancies/1000117342"
 },
 {
  "url": "https://career.habr.com/vacancies/1000117295",
  "salary": 100000
 },
 {
  "url": "https://career.habr.com/vacancies/1000117287"
 },
 {
  "url": "https://career.habr.com/vacancies/1000117258",
  "salary": 200000
 },
 {
  "url": "https://career.habr.com/vacancies/1000117209"
 },
 {
  "url": "https://career.habr.com/vacancies/1000117192"
 },
 {
  "url": "https://career.habr.com/vacancies/1000117194"
 },
 {
  "url": "https://career.habr.com/vacancies/1000117175"
 },
 {
  "url": "https://career.habr.com/vacancies/1000117103",
  "salary": 280000
 },
 {
  "url": "https://career.habr.com/vacancies/1000115298"
 },
 {
  "url": "https://career.habr.com/vacancies/1000114457"
 }
]